#div1 {

height: 150px;

width: 400px;

margin: 20px;

border: 1px solid red;

padding: 10px;

}


For this object, calculate:

Total height: same + margins
Total width
Browser calculated height
Browser calculated width:


border-left + padding-left + (width of the
content)+ padding-right + border-right


    ANSWERS:
    
    
    Total Height = px(20+1+10+150+10+1+20) = 212px
    
    Total Width = px(20+1+10+400+10+1+20) = 462px
    
    Browser Calculated Height = px(1+10+150+10+1) = 172px
    
    Browser Calculated Width = px(1+10+400+10+1) = 422px
    



